ugl_am_radio/fpga/formal/wd_cover/engine_0/trace2.vcd
$version Generated by Yosys-SMTBMC $end
$timescale 1s $end
$var integer 32 t smt_step $end
$var event 1 ! smt_clock $end
$scope module watchdog_timer $end
$scope module _witness_ $end
$var wire 1 n0 anyinit_procdff_298 $end
$var wire 1 n1 anyinit_procdff_299 $end
$var wire 1 n2 anyinit_procdff_300 $end
$var wire 1 n3 anyinit_procdff_326 $end
$upscope $end
$var wire 1 n4 clk $end
$var wire 32 n5 counter $end
$var wire 1 n6 enable $end
$var wire 1 n7 f_past_valid $end
$var wire 1 n8 force_reset $end
$var wire 1 n9 heartbeat $end
$var wire 32 n10 remaining_cycles $end
$var wire 32 n11 remaining_sec $end
$var wire 1 n12 rstn $end
$var wire 8 n13 time_remaining $end
$var wire 1 n14 triggered $end
$var wire 1 n15 warning $end
$upscope $end
$enddefinitions $end
#0
1!
b00000000000000000000000000000000 t
b1 n4
b0 n0
b0 n1
b0 n2
b0 n3
b00000000000000000000000000000000 n5
b1 n6
b0 n7
b0 n8
b0 n9
b00000000000000000000000000000101 n10
b00000000000000000000000000000101 n11
b0 n12
b00000101 n13
b0 n14
b0 n15
#0
b0 n4
#1
1!
b00000000000000000000000000000001 t
b1 n4
b0 n0
b0 n1
b0 n2
b0 n3
b00000000000000000000000000000000 n5
b1 n6
b1 n7
b0 n8
b0 n9
b00000000000000000000000000000101 n10
b00000000000000000000000000000101 n11
b1 n12
b00000101 n13
b0 n14
b0 n15
#1
b0 n4
#2
1!
b00000000000000000000000000000010 t
b1 n4
b0 n0
b0 n1
b0 n2
b0 n3
b00000000000000000000000000000001 n5
b1 n6
b1 n7
b0 n8
b0 n9
b00000000000000000000000000000100 n10
b00000000000000000000000000000100 n11
b1 n12
b00000100 n13
b0 n14
b0 n15
#2
b0 n4
#3
1!
b00000000000000000000000000000011 t
b1 n4
b0 n0
b0 n1
b0 n2
b0 n3
b00000000000000000000000000000010 n5
b1 n6
b1 n7
b0 n8
b0 n9
b00000000000000000000000000000011 n10
b00000000000000000000000000000011 n11
b1 n12
b00000011 n13
b0 n14
b0 n15
#3
b0 n4
#4
1!
b00000000000000000000000000000100 t
b1 n4
b0 n0
b0 n1
b0 n2
b0 n3
b00000000000000000000000000000011 n5
b1 n6
b1 n7
b0 n8
b0 n9
b00000000000000000000000000000010 n10
b00000000000000000000000000000010 n11
b1 n12
b00000010 n13
b0 n14
b0 n15
#4
b0 n4
#5
1!
b00000000000000000000000000000101 t
b1 n4
b0 n0
b0 n1
b0 n2
b0 n3
b00000000000000000000000000000100 n5
b1 n6
b1 n7
b0 n8
b0 n9
b00000000000000000000000000000001 n10
b00000000000000000000000000000001 n11
b1 n12
b00000001 n13
b0 n14
b1 n15
#5
b0 n4
#6
1!
b00000000000000000000000000000110 t
b1 n4
b1 n0
b0 n1
b0 n2
b0 n3
b00000000000000000000000000000101 n5
b1 n6
b1 n7
b0 n8
b0 n9
b00000000000000000000000000000000 n10
b00000000000000000000000000000000 n11
b1 n12
b00000000 n13
b0 n14
b1 n15
#6
b0 n4
#7
1!
b00000000000000000000000000000111 t
b1 n4
b1 n0
b0 n1
b0 n2
b0 n3
b00000000000000000000000000000101 n5
b1 n6
b1 n7
b0 n8
b0 n9
b00000000000000000000000000000000 n10
b00000000000000000000000000000000 n11
b1 n12
b00000000 n13
b1 n14
b1 n15
#7
b0 n4
#8
1!
b00000000000000000000000000001000 t
b1 n4
b1 n0
b1 n1
b1 n2
b0 n3
b00000000000000000000000000000101 n5
b1 n6
b1 n7
b0 n8
b0 n9
b00000000000000000000000000000000 n10
b00000000000000000000000000000000 n11
b1 n12
b00000000 n13
b1 n14
b1 n15
#8
b0 n4
#9
1!
b00000000000000000000000000001001 t
b1 n4
