ugl_am_radio/fpga/formal/watchdog_cover/engine_0/trace3.vcd
$version Generated by Yosys-SMTBMC $end
$timescale 1ns $end
$var integer 32 t smt_step $end
$var event 1 ! smt_clock $end
$scope module watchdog_timer $end
$scope module _witness_ $end
$var wire 1 n0 anyinit_procdff_185 $end
$upscope $end
$var wire 1 n1 clk $end
$var wire 32 n2 counter $end
$var wire 1 n3 enable $end
$var wire 1 n4 f_past_valid $end
$var wire 1 n5 force_reset $end
$var wire 1 n6 heartbeat $end
$var wire 32 n7 remaining_cycles $end
$var wire 32 n8 remaining_sec $end
$var wire 1 n9 rstn $end
$var wire 8 n10 time_remaining $end
$var wire 1 n11 triggered $end
$var wire 1 n12 warning $end
$upscope $end
$enddefinitions $end
#0
1!
b00000000000000000000000000000000 t
b1 n1
b0 n0
b00000000000000000000000000000000 n2
b1 n3
b0 n4
b0 n5
b0 n6
b00000000000000000000000000010100 n7
b00000000000000000000000000000010 n8
b0 n9
b00000010 n10
b0 n11
b0 n12
#5
b0 n1
#10
1!
b00000000000000000000000000000001 t
b1 n1
b0 n0
b00000000000000000000000000000000 n2
b1 n3
b1 n4
b0 n5
b0 n6
b00000000000000000000000000010100 n7
b00000000000000000000000000000010 n8
b1 n9
b00000010 n10
b0 n11
b0 n12
#15
b0 n1
#20
1!
b00000000000000000000000000000010 t
b1 n1
b0 n0
b00000000000000000000000000000001 n2
b1 n3
b1 n4
b0 n5
b0 n6
b00000000000000000000000000010011 n7
b00000000000000000000000000000001 n8
b1 n9
b00000001 n10
b0 n11
b0 n12
#25
b0 n1
#30
1!
b00000000000000000000000000000011 t
b1 n1
b0 n0
b00000000000000000000000000000010 n2
b1 n3
b1 n4
b0 n5
b0 n6
b00000000000000000000000000010010 n7
b00000000000000000000000000000001 n8
b1 n9
b00000001 n10
b0 n11
b0 n12
#35
b0 n1
#40
1!
b00000000000000000000000000000100 t
b1 n1
b0 n0
b00000000000000000000000000000011 n2
b1 n3
b1 n4
b0 n5
b0 n6
b00000000000000000000000000010001 n7
b00000000000000000000000000000001 n8
b1 n9
b00000001 n10
b0 n11
b0 n12
#45
b0 n1
#50
1!
b00000000000000000000000000000101 t
b1 n1
b0 n0
b00000000000000000000000000000100 n2
b1 n3
b1 n4
b0 n5
b0 n6
b00000000000000000000000000010000 n7
b00000000000000000000000000000001 n8
b1 n9
b00000001 n10
b0 n11
b0 n12
#55
b0 n1
#60
1!
b00000000000000000000000000000110 t
b1 n1
b0 n0
b00000000000000000000000000000101 n2
b1 n3
b1 n4
b0 n5
b0 n6
b00000000000000000000000000001111 n7
b00000000000000000000000000000001 n8
b1 n9
b00000001 n10
b0 n11
b0 n12
#65
b0 n1
#70
1!
b00000000000000000000000000000111 t
b1 n1
b0 n0
b00000000000000000000000000000110 n2
b1 n3
b1 n4
b0 n5
b0 n6
b00000000000000000000000000001110 n7
b00000000000000000000000000000001 n8
b1 n9
b00000001 n10
b0 n11
b0 n12
#75
b0 n1
#80
1!
b00000000000000000000000000001000 t
b1 n1
b0 n0
b00000000000000000000000000000111 n2
b1 n3
b1 n4
b0 n5
b0 n6
b00000000000000000000000000001101 n7
b00000000000000000000000000000001 n8
b1 n9
b00000001 n10
b0 n11
b0 n12
#85
b0 n1
#90
1!
b00000000000000000000000000001001 t
b1 n1
b0 n0
b00000000000000000000000000001000 n2
b1 n3
b1 n4
b0 n5
b0 n6
b00000000000000000000000000001100 n7
b00000000000000000000000000000001 n8
b1 n9
b00000001 n10
b0 n11
b0 n12
#95
b0 n1
#100
1!
b00000000000000000000000000001010 t
b1 n1
b0 n0
b00000000000000000000000000001001 n2
b1 n3
b1 n4
b0 n5
b0 n6
b00000000000000000000000000001011 n7
b00000000000000000000000000000001 n8
b1 n9
b00000001 n10
b0 n11
b0 n12
#105
b0 n1
#110
1!
b00000000000000000000000000001011 t
b1 n1
b0 n0
b00000000000000000000000000001010 n2
b1 n3
b1 n4
b0 n5
b0 n6
b00000000000000000000000000001010 n7
b00000000000000000000000000000001 n8
b1 n9
b00000001 n10
b0 n11
b0 n12
#115
b0 n1
#120
1!
b00000000000000000000000000001100 t
b1 n1
b0 n0
b00000000000000000000000000001011 n2
b1 n3
b1 n4
b0 n5
b0 n6
b00000000000000000000000000001001 n7
b00000000000000000000000000000000 n8
b1 n9
b00000000 n10
b0 n11
b0 n12
#125
b0 n1
#130
1!
b00000000000000000000000000001101 t
b1 n1
b0 n0
b00000000000000000000000000001100 n2
b1 n3
b1 n4
b0 n5
b0 n6
b00000000000000000000000000001000 n7
b00000000000000000000000000000000 n8
b1 n9
b00000000 n10
b0 n11
b0 n12
#135
b0 n1
#140
1!
b00000000000000000000000000001110 t
b1 n1
b0 n0
b00000000000000000000000000001101 n2
b1 n3
b1 n4
b0 n5
b0 n6
b00000000000000000000000000000111 n7
b00000000000000000000000000000000 n8
b1 n9
b00000000 n10
b0 n11
b0 n12
#145
b0 n1
#150
1!
b00000000000000000000000000001111 t
b1 n1
b0 n0
b00000000000000000000000000001110 n2
b1 n3
b1 n4
b0 n5
b0 n6
b00000000000000000000000000000110 n7
b00000000000000000000000000000000 n8
b1 n9
b00000000 n10
b0 n11
b0 n12
#155
b0 n1
#160
1!
b00000000000000000000000000010000 t
b1 n1
b0 n0
b00000000000000000000000000001111 n2
b1 n3
b1 n4
b0 n5
b0 n6
b00000000000000000000000000000101 n7
b00000000000000000000000000000000 n8
b1 n9
b00000000 n10
b0 n11
b0 n12
#165
b0 n1
#170
1!
b00000000000000000000000000010001 t
b1 n1
b0 n0
b00000000000000000000000000010000 n2
b1 n3
b1 n4
b0 n5
b0 n6
b00000000000000000000000000000100 n7
b00000000000000000000000000000000 n8
b1 n9
b00000000 n10
b0 n11
b0 n12
#175
b0 n1
#180
1!
b00000000000000000000000000010010 t
b1 n1
b0 n0
b00000000000000000000000000010001 n2
b1 n3
b1 n4
b0 n5
b0 n6
b00000000000000000000000000000011 n7
b00000000000000000000000000000000 n8
b1 n9
b00000000 n10
b0 n11
b1 n12
#185
b0 n1
#190
1!
b00000000000000000000000000010011 t
b1 n1
b0 n0
b00000000000000000000000000010010 n2
b1 n3
b1 n4
b0 n5
b0 n6
b00000000000000000000000000000010 n7
b00000000000000000000000000000000 n8
b1 n9
b00000000 n10
b0 n11
b1 n12
#195
b0 n1
#200
1!
b00000000000000000000000000010100 t
b1 n1
b0 n0
b00000000000000000000000000010011 n2
b1 n3
b1 n4
b0 n5
b0 n6
b00000000000000000000000000000001 n7
b00000000000000000000000000000000 n8
b1 n9
b00000000 n10
b0 n11
b1 n12
#205
b0 n1
#210
1!
b00000000000000000000000000010101 t
b1 n1
b0 n0
b00000000000000000000000000010100 n2
b1 n3
b1 n4
b0 n5
b0 n6
b00000000000000000000000000000000 n7
b00000000000000000000000000000000 n8
b1 n9
b00000000 n10
b0 n11
b1 n12
#215
b0 n1
#220
1!
b00000000000000000000000000010110 t
b1 n1
b0 n0
b00000000000000000000000000010100 n2
b0 n3
b1 n4
b0 n5
b0 n6
b00000000000000000000000000000000 n7
b00000000000000000000000000000000 n8
b1 n9
b00000000 n10
b1 n11
b1 n12
#225
b0 n1
#230
1!
b00000000000000000000000000010111 t
b1 n1
b1 n0
b00000000000000000000000000000000 n2
b0 n3
b1 n4
b0 n5
b0 n6
b00000000000000000000000000010100 n7
b00000000000000000000000000000010 n8
b0 n9
b00000010 n10
b0 n11
b0 n12
#235
b0 n1
#240
1!
b00000000000000000000000000011000 t
b1 n1
b0 n0
b00000000000000000000000000000000 n2
b1 n3
b1 n4
b0 n5
b0 n6
b00000000000000000000000000010100 n7
b00000000000000000000000000000010 n8
b1 n9
b00000010 n10
b0 n11
b0 n12
#245
b0 n1
#250
1!
b00000000000000000000000000011001 t
b1 n1
