am_radio/fpga/formal/watchdog_cover/engine_0/trace2.vcd
$version Generated by Yosys-SMTBMC $end
$timescale 1ns $end
$var integer 32 t smt_step $end
$var event 1 ! smt_clock $end
$scope module watchdog_timer $end
$scope module _witness_ $end
$var wire 1 n0 anyinit_procdff_298 $end
$var wire 1 n1 anyinit_procdff_299 $end
$var wire 1 n2 anyinit_procdff_300 $end
$var wire 1 n3 anyinit_procdff_326 $end
$upscope $end
$var wire 1 n4 clk $end
$var wire 32 n5 counter $end
$var wire 1 n6 enable $end
$var wire 1 n7 f_past_valid $end
$var wire 1 n8 force_reset $end
$var wire 1 n9 heartbeat $end
$var wire 32 n10 remaining_cycles $end
$var wire 32 n11 remaining_sec $end
$var wire 1 n12 rstn $end
$var wire 8 n13 time_remaining $end
$var wire 1 n14 triggered $end
$var wire 1 n15 warning $end
$upscope $end
$enddefinitions $end
#0
1!
b00000000000000000000000000000000 t
b1 n4
b0 n0
b0 n1
b0 n2
b0 n3
b00000000000000000000000000000000 n5
b1 n6
b0 n7
b0 n8
b0 n9
b00000000000000000000000000010100 n10
b00000000000000000000000000000010 n11
b0 n12
b00000010 n13
b0 n14
b0 n15
#5
b0 n4
#10
1!
b00000000000000000000000000000001 t
b1 n4
b0 n0
b0 n1
b0 n2
b0 n3
b00000000000000000000000000000000 n5
b1 n6
b1 n7
b0 n8
b0 n9
b00000000000000000000000000010100 n10
b00000000000000000000000000000010 n11
b1 n12
b00000010 n13
b0 n14
b0 n15
#15
b0 n4
#20
1!
b00000000000000000000000000000010 t
b1 n4
b0 n0
b0 n1
b0 n2
b0 n3
b00000000000000000000000000000001 n5
b1 n6
b1 n7
b0 n8
b0 n9
b00000000000000000000000000010011 n10
b00000000000000000000000000000001 n11
b1 n12
b00000001 n13
b0 n14
b0 n15
#25
b0 n4
#30
1!
b00000000000000000000000000000011 t
b1 n4
b0 n0
b0 n1
b0 n2
b0 n3
b00000000000000000000000000000010 n5
b1 n6
b1 n7
b0 n8
b0 n9
b00000000000000000000000000010010 n10
b00000000000000000000000000000001 n11
b1 n12
b00000001 n13
b0 n14
b0 n15
#35
b0 n4
#40
1!
b00000000000000000000000000000100 t
b1 n4
b0 n0
b0 n1
b0 n2
b0 n3
b00000000000000000000000000000011 n5
b1 n6
b1 n7
b0 n8
b0 n9
b00000000000000000000000000010001 n10
b00000000000000000000000000000001 n11
b1 n12
b00000001 n13
b0 n14
b0 n15
#45
b0 n4
#50
1!
b00000000000000000000000000000101 t
b1 n4
b0 n0
b0 n1
b0 n2
b0 n3
b00000000000000000000000000000100 n5
b1 n6
b1 n7
b0 n8
b0 n9
b00000000000000000000000000010000 n10
b00000000000000000000000000000001 n11
b1 n12
b00000001 n13
b0 n14
b0 n15
#55
b0 n4
#60
1!
b00000000000000000000000000000110 t
b1 n4
b0 n0
b0 n1
b0 n2
b0 n3
b00000000000000000000000000000101 n5
b1 n6
b1 n7
b0 n8
b0 n9
b00000000000000000000000000001111 n10
b00000000000000000000000000000001 n11
b1 n12
b00000001 n13
b0 n14
b0 n15
#65
b0 n4
#70
1!
b00000000000000000000000000000111 t
b1 n4
b0 n0
b0 n1
b0 n2
b0 n3
b00000000000000000000000000000110 n5
b1 n6
b1 n7
b0 n8
b0 n9
b00000000000000000000000000001110 n10
b00000000000000000000000000000001 n11
b1 n12
b00000001 n13
b0 n14
b0 n15
#75
b0 n4
#80
1!
b00000000000000000000000000001000 t
b1 n4
b0 n0
b0 n1
b0 n2
b0 n3
b00000000000000000000000000000111 n5
b1 n6
b1 n7
b0 n8
b0 n9
b00000000000000000000000000001101 n10
b00000000000000000000000000000001 n11
b1 n12
b00000001 n13
b0 n14
b0 n15
#85
b0 n4
#90
1!
b00000000000000000000000000001001 t
b1 n4
b0 n0
b0 n1
b0 n2
b0 n3
b00000000000000000000000000001000 n5
b1 n6
b1 n7
b0 n8
b0 n9
b00000000000000000000000000001100 n10
b00000000000000000000000000000001 n11
b1 n12
b00000001 n13
b0 n14
b0 n15
#95
b0 n4
#100
1!
b00000000000000000000000000001010 t
b1 n4
b0 n0
b0 n1
b0 n2
b0 n3
b00000000000000000000000000001001 n5
b1 n6
b1 n7
b0 n8
b0 n9
b00000000000000000000000000001011 n10
b00000000000000000000000000000001 n11
b1 n12
b00000001 n13
b0 n14
b0 n15
#105
b0 n4
#110
1!
b00000000000000000000000000001011 t
b1 n4
b0 n0
b0 n1
b0 n2
b0 n3
b00000000000000000000000000001010 n5
b1 n6
b1 n7
b0 n8
b0 n9
b00000000000000000000000000001010 n10
b00000000000000000000000000000001 n11
b1 n12
b00000001 n13
b0 n14
b0 n15
#115
b0 n4
#120
1!
b00000000000000000000000000001100 t
b1 n4
b0 n0
b0 n1
b0 n2
b0 n3
b00000000000000000000000000001011 n5
b1 n6
b1 n7
b0 n8
b0 n9
b00000000000000000000000000001001 n10
b00000000000000000000000000000000 n11
b1 n12
b00000000 n13
b0 n14
b0 n15
#125
b0 n4
#130
1!
b00000000000000000000000000001101 t
b1 n4
b0 n0
b0 n1
b0 n2
b0 n3
b00000000000000000000000000001100 n5
b1 n6
b1 n7
b0 n8
b0 n9
b00000000000000000000000000001000 n10
b00000000000000000000000000000000 n11
b1 n12
b00000000 n13
b0 n14
b0 n15
#135
b0 n4
#140
1!
b00000000000000000000000000001110 t
b1 n4
b0 n0
b0 n1
b0 n2
b0 n3
b00000000000000000000000000001101 n5
b1 n6
b1 n7
b0 n8
b0 n9
b00000000000000000000000000000111 n10
b00000000000000000000000000000000 n11
b1 n12
b00000000 n13
b0 n14
b0 n15
#145
b0 n4
#150
1!
b00000000000000000000000000001111 t
b1 n4
b0 n0
b0 n1
b0 n2
b0 n3
b00000000000000000000000000001110 n5
b1 n6
b1 n7
b0 n8
b0 n9
b00000000000000000000000000000110 n10
b00000000000000000000000000000000 n11
b1 n12
b00000000 n13
b0 n14
b0 n15
#155
b0 n4
#160
1!
b00000000000000000000000000010000 t
b1 n4
b0 n0
b0 n1
b0 n2
b0 n3
b00000000000000000000000000001111 n5
b1 n6
b1 n7
b0 n8
b0 n9
b00000000000000000000000000000101 n10
b00000000000000000000000000000000 n11
b1 n12
b00000000 n13
b0 n14
b0 n15
#165
b0 n4
#170
1!
b00000000000000000000000000010001 t
b1 n4
b0 n0
b0 n1
b0 n2
b0 n3
b00000000000000000000000000010000 n5
b1 n6
b1 n7
b0 n8
b0 n9
b00000000000000000000000000000100 n10
b00000000000000000000000000000000 n11
b1 n12
b00000000 n13
b0 n14
b0 n15
#175
b0 n4
#180
1!
b00000000000000000000000000010010 t
b1 n4
b0 n0
b0 n1
b0 n2
b0 n3
b00000000000000000000000000010001 n5
b1 n6
b1 n7
b0 n8
b0 n9
b00000000000000000000000000000011 n10
b00000000000000000000000000000000 n11
b1 n12
b00000000 n13
b0 n14
b1 n15
#185
b0 n4
#190
1!
b00000000000000000000000000010011 t
b1 n4
b1 n0
b0 n1
b0 n2
b0 n3
b00000000000000000000000000010010 n5
b1 n6
b1 n7
b0 n8
b0 n9
b00000000000000000000000000000010 n10
b00000000000000000000000000000000 n11
b1 n12
b00000000 n13
b0 n14
b1 n15
#195
b0 n4
#200
1!
b00000000000000000000000000010100 t
b1 n4
b1 n0
b0 n1
b0 n2
b0 n3
b00000000000000000000000000010011 n5
b1 n6
b1 n7
b0 n8
b0 n9
b00000000000000000000000000000001 n10
b00000000000000000000000000000000 n11
b1 n12
b00000000 n13
b0 n14
b1 n15
#205
b0 n4
#210
1!
b00000000000000000000000000010101 t
b1 n4
b1 n0
b0 n1
b0 n2
b0 n3
b00000000000000000000000000010100 n5
b1 n6
b1 n7
b0 n8
b0 n9
b00000000000000000000000000000000 n10
b00000000000000000000000000000000 n11
b1 n12
b00000000 n13
b0 n14
b1 n15
#215
b0 n4
#220
1!
b00000000000000000000000000010110 t
b1 n4
b1 n0
b0 n1
b0 n2
b0 n3
b00000000000000000000000000010100 n5
b1 n6
b1 n7
b0 n8
b0 n9
b00000000000000000000000000000000 n10
b00000000000000000000000000000000 n11
b1 n12
b00000000 n13
b1 n14
b1 n15
#225
b0 n4
#230
1!
b00000000000000000000000000010111 t
b1 n4
